^C:\USERS\TWOONEOW\SOURCE\REPOS\DZ14\DZ14.CPP
C:\USERS\TWOONEOW\SOURCE\REPOS\DZ14\X64\DEBUG\VC143.PDB
C:\USERS\TWOONEOW\SOURCE\REPOS\DZ14\X64\DEBUG\VC143.IDB
C:\USERS\TWOONEOW\SOURCE\REPOS\DZ14\X64\DEBUG\DZ14.OBJ
