^C:\USERS\TWOONEOW\SOURCE\REPOS\DZ14\X64\DEBUG\DZ14.OBJ
C:\USERS\TWOONEOW\SOURCE\REPOS\DZ14\X64\DEBUG\DZ14.EXE
C:\USERS\TWOONEOW\SOURCE\REPOS\DZ14\X64\DEBUG\DZ14.ILK
C:\USERS\TWOONEOW\SOURCE\REPOS\DZ14\X64\DEBUG\DZ14.PDB
